{
  "udrtype": "library",
  "id": "org.esta.lib.color.1",
  "description": "ESTA Color Library",
  "publishdate": "2021-06-14",
  "author": "ESTA",
  "children": [
    {
      "udrtype": "scalaritemclass",
      "id": "spectrum-data",
      "name": "Spectrum Data",
      "description": "The Spectral Power Distribution data of an emitter in normalized wavelength.",
      "datatype": "array",
      "unit": "nanometers"
    },
    {
      "udrtype": "scalaritemclass",
      "id": "spectrum-start",
      "name": "Spectrum Start",
      "description": "The Spectral Power Distribution wavelength start.",
      "datatype": "number",
      "unit": "nanometers"
    },
    {
      "udrtype": "scalaritemclass",
      "id": "spectrum-end",
      "name": "Spectrum End",
      "description": "The Spectral Power Distribution wavelength step.",
      "datatype": "number",
      "unit": "nanometers"
    },
    {
      "udrtype": "scalaritemclass",
      "id": "spectrum-step",
      "name": "Spectrum Step",
      "description": "The Spectral Power Distribution wavelength step.",
      "datatype": "number",
      "unit": "nanometers"
    }
  ]
}
